{
  "__inputs": [],
  "annotations": {
    "list": []
  },
  "editable": true,
  "gnetId": null,
  "hideControls": false,
  "id": null,
  "links": [],
  "refresh": "10s",
  "rows": [
    {
      "collapse": false,
      "editable": true,
      "height": "250px",
      "panels": [
        {
          "cacheTimeout": null,
          "colorBackground": false,
          "colorValue": false,
          "colors": [
            "rgba(50, 172, 45, 0.97)",
            "rgba(237, 129, 40, 0.89)",
            "rgba(245, 54, 54, 0.9)"
          ],
          "datasource": "Prometheus",
          "decimals": null,
          "description": null,
          "editable": true,
          "format": "ops",
          "gauge": {
            "maxValue": 100,
            "minValue": 0,
            "show": false,
            "thresholdLabels": false,
            "thresholdMarkers": true
          },
          "height": null,
          "hideTimeOverride": false,
          "id": 1,
          "interval": null,
          "links": [],
          "mappingType": 1,
          "mappingTypes": [
            {
              "name": "value to text",
              "value": 1
            },
            {
              "name": "range to text",
              "value": 2
            }
          ],
          "maxDataPoints": 100,
          "minSpan": null,
          "nullPointMode": "connected",
          "nullText": null,
          "postfix": "",
          "postfixFontSize": "50%",
          "prefix": "",
          "prefixFontSize": "50%",
          "rangeMaps": [],
          "repeat": null,
          "span": 2,
          "sparkline": {
            "fillColor": "rgba(31, 118, 189, 0.18)",
            "full": true,
            "lineColor": "rgb(31, 120, 193)",
            "show": true
          },
          "targets": [
            {
              "datasource": "",
              "expr": "round(sum(irate(istio_requests_total{reporter=\"source\", source_workload=\"$source\", destination_workload=\"$destination\"}[5m])), 0.001)",
              "format": "time_series",
              "instant": false,
              "interval": "",
              "intervalFactor": 2,
              "legendFormat": "",
              "metric": "",
              "refId": "",
              "step": 10,
              "target": ""
            }
          ],
          "thresholds": "",
          "timeFrom": null,
          "title": "Request Volume",
          "transparent": true,
          "type": "singlestat",
          "valueFontSize": "80%",
          "valueMaps": [],
          "valueName": "current"
        },
        {
          "cacheTimeout": null,
          "colorBackground": false,
          "colorValue": false,
          "colors": [
            "rgba(50, 172, 45, 0.97)",
            "rgba(237, 129, 40, 0.89)",
            "rgba(245, 54, 54, 0.9)"
          ],
          "datasource": "Prometheus",
          "decimals": null,
          "description": null,
          "editable": true,
          "format": "percentunit",
          "gauge": {
            "maxValue": 100,
            "minValue": 0,
            "show": false,
            "thresholdLabels": false,
            "thresholdMarkers": true
          },
          "height": null,
          "hideTimeOverride": false,
          "id": 2,
          "interval": null,
          "links": [],
          "mappingType": 1,
          "mappingTypes": [
            {
              "name": "value to text",
              "value": 1
            },
            {
              "name": "range to text",
              "value": 2
            }
          ],
          "maxDataPoints": 100,
          "minSpan": null,
          "nullPointMode": "connected",
          "nullText": null,
          "postfix": "",
          "postfixFontSize": "50%",
          "prefix": "",
          "prefixFontSize": "50%",
          "rangeMaps": [],
          "repeat": null,
          "span": 2,
          "sparkline": {
            "fillColor": "rgba(31, 118, 189, 0.18)",
            "full": true,
            "lineColor": "rgb(31, 120, 193)",
            "show": true
          },
          "targets": [
            {
              "datasource": "",
              "expr": "sum(irate(istio_requests_total{reporter=\"source\", source_workload=\"$source\", destination_workload=\"$destination\", response_code!~\"5.*\"}[5m])) / sum(irate(istio_requests_total{reporter=\"source\", source_workload=\"$source\", destination_workload=\"$destination\"}[5m]))",
              "format": "time_series",
              "instant": false,
              "interval": "",
              "intervalFactor": 2,
              "legendFormat": "",
              "metric": "",
              "refId": "",
              "step": 10,
              "target": ""
            }
          ],
          "thresholds": "",
          "timeFrom": null,
          "title": "Success Rate (non-5XX)",
          "transparent": true,
          "type": "singlestat",
          "valueFontSize": "80%",
          "valueMaps": [],
          "valueName": "current"
        },
        {
          "aliasColors": {},
          "bars": false,
          "datasource": "Prometheus",
          "description": null,
          "editable": true,
          "error": false,
          "fill": 1,
          "grid": {
            "threshold1": null,
            "threshold1Color": "rgba(216, 200, 27, 0.27)",
            "threshold2": null,
            "threshold2Color": "rgba(234, 112, 112, 0.22)"
          },
          "id": 3,
          "isNew": true,
          "legend": {
            "alignAsTable": false,
            "avg": false,
            "current": false,
            "hideEmpty": false,
            "hideZero": false,
            "max": false,
            "min": false,
            "rightSide": false,
            "show": true,
            "sideWidth": null,
            "sort": null,
            "sortDesc": false,
            "total": false,
            "values": false
          },
          "lines": true,
          "linewidth": 2,
          "links": [],
          "minSpan": null,
          "nullPointMode": "connected",
          "percentage": false,
          "pointradius": 5,
          "points": false,
          "renderer": "flot",
          "repeat": null,
          "seriesOverrides": [],
          "span": 8,
          "stack": false,
          "steppedLine": false,
          "targets": [
            {
              "datasource": "",
              "expr": "histogram_quantile(0.5, sum(rate(istio_request_duration_seconds_bucket{reporter=\"source\", source_workload=\"$source\", destination_workload=\"$destination\"}[1m])) by (le))",
              "format": "time_series",
              "instant": false,
              "interval": "",
              "intervalFactor": 2,
              "legendFormat": "P50",
              "metric": "",
              "refId": "",
              "step": 10,
              "target": ""
            },
            {
              "datasource": "",
              "expr": "histogram_quantile(0.95, sum(rate(istio_request_duration_seconds_bucket{reporter=\"source\", source_workload=\"$source\", destination_workload=\"$destination\"}[1m])) by (le))",
              "format": "time_series",
              "instant": false,
              "interval": "",
              "intervalFactor": 2,
              "legendFormat": "P95",
              "metric": "",
              "refId": "",
              "step": 10,
              "target": ""
            },
            {
              "datasource": "",
              "expr": "histogram_quantile(0.99, sum(rate(istio_request_duration_seconds_bucket{reporter=\"source\", source_workload=\"$source\", destination_workload=\"$destination\"}[1m])) by (le))",
              "format": "time_series",
              "instant": false,
              "interval": "",
              "intervalFactor": 2,
              "legendFormat": "P99",
              "metric": "",
              "refId": "",
              "step": 10,
              "target": ""
            }
          ],
          "timeFrom": null,
          "timeShift": null,
          "title": "Latency",
          "tooltip": {
            "msResolution": true,
            "shared": true,
            "sort": 0,
            "value_type": "cumulative"
          },
          "transparent": true,
          "type": "graph",
          "xaxis": {
            "show": true
          },
          "yaxes": [
            {
              "decimals": null,
              "format": "s",
              "label": "Latency (Seconds)",
              "logBase": 1,
              "max": null,
              "min": 0,
              "show": true
            },
            {
              "decimals": null,
              "format": "short",
              "label": null,
              "logBase": 1,
              "max": null,
              "min": 0,
              "show": true
            }
          ]
        }
      ],
      "repeat": null,
      "showTitle": false,
      "title": "New row"
    },
    {
      "collapse": false,
      "editable": true,
      "height": "250px",
      "panels": [
        {
          "cacheTimeout": null,
          "colorBackground": false,
          "colorValue": false,
          "colors": [
            "rgba(50, 172, 45, 0.97)",
            "rgba(237, 129, 40, 0.89)",
            "rgba(245, 54, 54, 0.9)"
          ],
          "datasource": "Prometheus",
          "decimals": null,
          "description": null,
          "editable": true,
          "format": "none",
          "gauge": {
            "maxValue": 100,
            "minValue": 0,
            "show": false,
            "thresholdLabels": false,
            "thresholdMarkers": true
          },
          "height": null,
          "hideTimeOverride": false,
          "id": 4,
          "interval": null,
          "links": [],
          "mappingType": 1,
          "mappingTypes": [
            {
              "name": "value to text",
              "value": 1
            },
            {
              "name": "range to text",
              "value": 2
            }
          ],
          "maxDataPoints": 100,
          "minSpan": null,
          "nullPointMode": "connected",
          "nullText": null,
          "postfix": "",
          "postfixFontSize": "50%",
          "prefix": "",
          "prefixFontSize": "50%",
          "rangeMaps": [],
          "repeat": null,
          "span": 4,
          "sparkline": {
            "fillColor": "rgba(31, 118, 189, 0.18)",
            "full": false,
            "lineColor": "rgb(31, 120, 193)",
            "show": false
          },
          "targets": [
            {
              "datasource": "",
              "expr": "sum(istio_requests_total{reporter=\"source\", source_workload=\"$source\", destination_workload=\"$destination\", response_code=~\"2[0-9][0-9]|3[0-9][0-9]\"})",
              "format": "time_series",
              "instant": false,
              "interval": "",
              "intervalFactor": 2,
              "legendFormat": "",
              "metric": "",
              "refId": "",
              "step": 10,
              "target": ""
            }
          ],
          "thresholds": "",
          "timeFrom": null,
          "title": "Succesful Requests [2XX-3XX]",
          "transparent": true,
          "type": "singlestat",
          "valueFontSize": "80%",
          "valueMaps": [],
          "valueName": "max"
        },
        {
          "aliasColors": {},
          "bars": false,
          "datasource": "Prometheus",
          "description": null,
          "editable": true,
          "error": false,
          "fill": 1,
          "grid": {
            "threshold1": null,
            "threshold1Color": "rgba(216, 200, 27, 0.27)",
            "threshold2": null,
            "threshold2Color": "rgba(234, 112, 112, 0.22)"
          },
          "id": 5,
          "isNew": true,
          "legend": {
            "alignAsTable": false,
            "avg": false,
            "current": false,
            "hideEmpty": false,
            "hideZero": false,
            "max": false,
            "min": false,
            "rightSide": false,
            "show": true,
            "sideWidth": null,
            "sort": null,
            "sortDesc": false,
            "total": false,
            "values": false
          },
          "lines": true,
          "linewidth": 2,
          "links": [],
          "minSpan": null,
          "nullPointMode": "connected",
          "percentage": false,
          "pointradius": 5,
          "points": false,
          "renderer": "flot",
          "repeat": null,
          "seriesOverrides": [],
          "span": 8,
          "stack": false,
          "steppedLine": false,
          "targets": [
            {
              "datasource": "",
              "expr": "sum(rate(istio_requests_total{reporter=\"source\", source_workload=\"$source\", destination_workload=\"$destination\", response_code=~\"2[0-9][0-9]|3[0-9][0-9]\"}[1m]))",
              "format": "time_series",
              "instant": false,
              "interval": "",
              "intervalFactor": 2,
              "legendFormat": "total",
              "metric": "",
              "refId": "",
              "step": 10,
              "target": ""
            },
            {
              "datasource": "",
              "expr": "sum(rate(istio_requests_total{reporter=\"source\", source_workload=\"$source\", destination_workload=\"$destination\", response_code=~\"2[0-9][0-9]|3[0-9][0-9]\"}[1m])) by (response_code)",
              "format": "time_series",
              "instant": false,
              "interval": "",
              "intervalFactor": 2,
              "legendFormat": "{{response_code}}",
              "metric": "",
              "refId": "",
              "step": 10,
              "target": ""
            }
          ],
          "timeFrom": null,
          "timeShift": null,
          "title": "Succesful Requests [2XX-3XX]",
          "tooltip": {
            "msResolution": true,
            "shared": true,
            "sort": 0,
            "value_type": "cumulative"
          },
          "transparent": true,
          "type": "graph",
          "xaxis": {
            "show": true
          },
          "yaxes": [
            {
              "decimals": null,
              "format": "ops",
              "label": "Requests Per Second (RPS)",
              "logBase": 1,
              "max": null,
              "min": 0,
              "show": true
            },
            {
              "decimals": null,
              "format": "short",
              "label": null,
              "logBase": 1,
              "max": null,
              "min": 0,
              "show": true
            }
          ]
        }
      ],
      "repeat": null,
      "showTitle": false,
      "title": "New row"
    },
    {
      "collapse": false,
      "editable": true,
      "height": "250px",
      "panels": [
        {
          "cacheTimeout": null,
          "colorBackground": false,
          "colorValue": false,
          "colors": [
            "rgba(50, 172, 45, 0.97)",
            "rgba(237, 129, 40, 0.89)",
            "rgba(245, 54, 54, 0.9)"
          ],
          "datasource": "Prometheus",
          "decimals": null,
          "description": null,
          "editable": true,
          "format": "none",
          "gauge": {
            "maxValue": 100,
            "minValue": 0,
            "show": false,
            "thresholdLabels": false,
            "thresholdMarkers": true
          },
          "height": null,
          "hideTimeOverride": false,
          "id": 6,
          "interval": null,
          "links": [],
          "mappingType": 1,
          "mappingTypes": [
            {
              "name": "value to text",
              "value": 1
            },
            {
              "name": "range to text",
              "value": 2
            }
          ],
          "maxDataPoints": 100,
          "minSpan": null,
          "nullPointMode": "connected",
          "nullText": null,
          "postfix": "",
          "postfixFontSize": "50%",
          "prefix": "",
          "prefixFontSize": "50%",
          "rangeMaps": [],
          "repeat": null,
          "span": 4,
          "sparkline": {
            "fillColor": "rgba(31, 118, 189, 0.18)",
            "full": false,
            "lineColor": "rgb(31, 120, 193)",
            "show": false
          },
          "targets": [
            {
              "datasource": "",
              "expr": "sum(istio_requests_total{reporter=\"source\", source_workload=\"$source\", destination_workload=\"$destination\", response_code=~\"4[0-9][0-9]|5[0-9][0-9]\"})",
              "format": "time_series",
              "instant": false,
              "interval": "",
              "intervalFactor": 2,
              "legendFormat": "",
              "metric": "",
              "refId": "",
              "step": 10,
              "target": ""
            }
          ],
          "thresholds": "",
          "timeFrom": null,
          "title": "Error Requests [4XX-5XX]",
          "transparent": true,
          "type": "singlestat",
          "valueFontSize": "80%",
          "valueMaps": [],
          "valueName": "max"
        },
        {
          "aliasColors": {},
          "bars": false,
          "datasource": "Prometheus",
          "description": null,
          "editable": true,
          "error": false,
          "fill": 1,
          "grid": {
            "threshold1": null,
            "threshold1Color": "rgba(216, 200, 27, 0.27)",
            "threshold2": null,
            "threshold2Color": "rgba(234, 112, 112, 0.22)"
          },
          "id": 7,
          "isNew": true,
          "legend": {
            "alignAsTable": false,
            "avg": false,
            "current": false,
            "hideEmpty": false,
            "hideZero": false,
            "max": false,
            "min": false,
            "rightSide": false,
            "show": true,
            "sideWidth": null,
            "sort": null,
            "sortDesc": false,
            "total": false,
            "values": false
          },
          "lines": true,
          "linewidth": 2,
          "links": [],
          "minSpan": null,
          "nullPointMode": "connected",
          "percentage": false,
          "pointradius": 5,
          "points": false,
          "renderer": "flot",
          "repeat": null,
          "seriesOverrides": [],
          "span": 8,
          "stack": false,
          "steppedLine": false,
          "targets": [
            {
              "datasource": "",
              "expr": "sum(rate(istio_requests_total{reporter=\"source\", source_workload=\"$source\", destination_workload=\"$destination\", response_code=~\"4[0-9][0-9]|5[0-9][0-9]\"}[1m]))",
              "format": "time_series",
              "instant": false,
              "interval": "",
              "intervalFactor": 2,
              "legendFormat": "total",
              "metric": "",
              "refId": "",
              "step": 10,
              "target": ""
            },
            {
              "datasource": "",
              "expr": "sum(rate(istio_requests_total{reporter=\"source\", source_workload=\"$source\", destination_workload=\"$destination\", response_code=~\"4[0-9][0-9]|5[0-9][0-9]\"}[1m])) by (response_code)",
              "format": "time_series",
              "instant": false,
              "interval": "",
              "intervalFactor": 2,
              "legendFormat": "{{response_code}}",
              "metric": "",
              "refId": "",
              "step": 10,
              "target": ""
            }
          ],
          "timeFrom": null,
          "timeShift": null,
          "title": "Error Requests [4XX-5XX]",
          "tooltip": {
            "msResolution": true,
            "shared": true,
            "sort": 0,
            "value_type": "cumulative"
          },
          "transparent": true,
          "type": "graph",
          "xaxis": {
            "show": true
          },
          "yaxes": [
            {
              "decimals": null,
              "format": "ops",
              "label": "Requests Per Second (RPS)",
              "logBase": 1,
              "max": null,
              "min": 0,
              "show": true
            },
            {
              "decimals": null,
              "format": "short",
              "label": null,
              "logBase": 1,
              "max": null,
              "min": 0,
              "show": true
            }
          ]
        }
      ],
      "repeat": null,
      "showTitle": false,
      "title": "New row"
    }
  ],
  "schemaVersion": 12,
  "sharedCrosshair": false,
  "style": "dark",
  "tags": [],
  "templating": {
    "list": [
      {
        "allValue": null,
        "current": {
          "tags": [],
          "text": null,
          "value": null
        },
        "datasource": "Prometheus",
        "hide": 0,
        "includeAll": false,
        "label": "Source",
        "multi": false,
        "name": "source",
        "options": [],
        "query": "label_values(source_workload)",
        "refresh": 1,
        "regex": null,
        "sort": 1,
        "tagValuesQuery": null,
        "tagsQuery": null,
        "type": "query",
        "useTags": false
      },
      {
        "allValue": null,
        "current": {
          "tags": [],
          "text": null,
          "value": null
        },
        "datasource": "Prometheus",
        "hide": 0,
        "includeAll": false,
        "label": "Destination",
        "multi": false,
        "name": "destination",
        "options": [],
        "query": "label_values({source_workload=\"$source\"}, destination_workload)",
        "refresh": 1,
        "regex": null,
        "sort": 1,
        "tagValuesQuery": null,
        "tagsQuery": null,
        "type": "query",
        "useTags": false
      }
    ]
  },
  "time": {
    "from": "now-1h",
    "to": "now"
  },
  "timepicker": {
    "refresh_intervals": [
      "5s",
      "10s",
      "30s",
      "1m",
      "5m",
      "15m",
      "30m",
      "1h",
      "2h",
      "1d"
    ],
    "time_options": [
      "5m",
      "15m",
      "1h",
      "6h",
      "12h",
      "24h",
      "2d",
      "7d",
      "30d"
    ]
  },
  "timezone": "utc",
  "title": "RED Dashboard",
  "uid": null,
  "version": 0
}
