Rate (ops),Mean (ms),P50 (ms),P95 (ms),P99 (ms),Max (ms),Success (%)
10,52.717038,39.476664,121.299342,181.335892,181.335892,100.0
1,43.145544,40.193243,55.734311,55.734311,55.734311,100.0
20,39.573097,38.052423,47.502029,71.018493,84.222008,100.0
10,44.855721,38.395029,92.876009,100.407681,100.407681,100.0
1,44.00068,39.118222,58.703186,58.703186,58.703186,100.0
20,40.866208,38.435696,54.99311,99.275755,100.529763,100.0
10,42.4357,38.574547,61.275452,103.970416,103.970416,100.0
1,43.98806,38.720672,56.106138,56.106138,56.106138,100.0
20,41.931537,38.44112,73.065564,103.495039,105.918716,100.0
--,AVERAGED,--
10,46.66948633333334,38.81541333333333,91.81693433333332,128.57132966666666,128.57132966666666,100.0
1,43.711428000000005,39.344045666666666,56.847878333333334,56.847878333333334,56.847878333333334,100.0
20,40.79028066666666,38.30974633333333,58.52023433333333,91.26309566666667,96.89016233333335,100.0
